{
    "propel": {
        "database": {
            "connections": {
                "baobab": {
                    "adapter": "mysql",
                    "dsn": "mysql:host=127.0.0.1;port=3306;dbname=baobab",
                    "user": "baobab_admin",
                    "password": "E6h2nt4UhYUu+C#C!XJH",
                    "settings": {
                        "charset": "utf8"
                    }
                }
            }
        }
    }
}